simulation/qsim/LogicalStep_Lab4.msim.vcd
$comment
	File created using the following command:
		vcd file LogicalStep_Lab4.msim.vcd -direction
$end
$date
	Fri Jul 11 17:49:07 2025
$end
$version
	ModelSim Version 10.5b
$end
$timescale
	1ps
$end

$scope module logicalstep_lab4_top_vhd_vec_tst $end
$var wire 1 ! clkin_50 $end
$var wire 1 " ew_seg_a $end
$var wire 1 # ew_seg_d $end
$var wire 1 $ ew_seg_g $end
$var wire 1 % leds [7] $end
$var wire 1 & leds [6] $end
$var wire 1 ' leds [5] $end
$var wire 1 ( leds [4] $end
$var wire 1 ) leds [3] $end
$var wire 1 * leds [2] $end
$var wire 1 + leds [1] $end
$var wire 1 , leds [0] $end
$var wire 1 - ns_seg_a $end
$var wire 1 . ns_seg_d $end
$var wire 1 / ns_seg_g $end
$var wire 1 0 pb_n [3] $end
$var wire 1 1 pb_n [2] $end
$var wire 1 2 pb_n [1] $end
$var wire 1 3 pb_n [0] $end
$var wire 1 4 rst_n $end
$var wire 1 5 seg7_char1 $end
$var wire 1 6 seg7_char2 $end
$var wire 1 7 seg7_data [6] $end
$var wire 1 8 seg7_data [5] $end
$var wire 1 9 seg7_data [4] $end
$var wire 1 : seg7_data [3] $end
$var wire 1 ; seg7_data [2] $end
$var wire 1 < seg7_data [1] $end
$var wire 1 = seg7_data [0] $end
$var wire 1 > sim_blink_sig $end
$var wire 1 ? sim_sm_clken $end
$var wire 1 @ sim_state [3] $end
$var wire 1 A sim_state [2] $end
$var wire 1 B sim_state [1] $end
$var wire 1 C sim_state [0] $end
$var wire 1 D sw [7] $end
$var wire 1 E sw [6] $end
$var wire 1 F sw [5] $end
$var wire 1 G sw [4] $end
$var wire 1 H sw [3] $end
$var wire 1 I sw [2] $end
$var wire 1 J sw [1] $end
$var wire 1 K sw [0] $end

$scope module i1 $end
$var wire 1 L gnd $end
$var wire 1 M vcc $end
$var wire 1 N unknown $end
$var wire 1 O devoe $end
$var wire 1 P devclrn $end
$var wire 1 Q devpor $end
$var wire 1 R ww_devoe $end
$var wire 1 S ww_devclrn $end
$var wire 1 T ww_devpor $end
$var wire 1 U ww_clkin_50 $end
$var wire 1 V ww_rst_n $end
$var wire 1 W ww_pb_n [3] $end
$var wire 1 X ww_pb_n [2] $end
$var wire 1 Y ww_pb_n [1] $end
$var wire 1 Z ww_pb_n [0] $end
$var wire 1 [ ww_sw [7] $end
$var wire 1 \ ww_sw [6] $end
$var wire 1 ] ww_sw [5] $end
$var wire 1 ^ ww_sw [4] $end
$var wire 1 _ ww_sw [3] $end
$var wire 1 ` ww_sw [2] $end
$var wire 1 a ww_sw [1] $end
$var wire 1 b ww_sw [0] $end
$var wire 1 c ww_leds [7] $end
$var wire 1 d ww_leds [6] $end
$var wire 1 e ww_leds [5] $end
$var wire 1 f ww_leds [4] $end
$var wire 1 g ww_leds [3] $end
$var wire 1 h ww_leds [2] $end
$var wire 1 i ww_leds [1] $end
$var wire 1 j ww_leds [0] $end
$var wire 1 k ww_sim_state [3] $end
$var wire 1 l ww_sim_state [2] $end
$var wire 1 m ww_sim_state [1] $end
$var wire 1 n ww_sim_state [0] $end
$var wire 1 o ww_sim_sm_clken $end
$var wire 1 p ww_sim_blink_sig $end
$var wire 1 q ww_ew_seg_a $end
$var wire 1 r ww_ew_seg_d $end
$var wire 1 s ww_ew_seg_g $end
$var wire 1 t ww_ns_seg_a $end
$var wire 1 u ww_ns_seg_d $end
$var wire 1 v ww_ns_seg_g $end
$var wire 1 w ww_seg7_data [6] $end
$var wire 1 x ww_seg7_data [5] $end
$var wire 1 y ww_seg7_data [4] $end
$var wire 1 z ww_seg7_data [3] $end
$var wire 1 { ww_seg7_data [2] $end
$var wire 1 | ww_seg7_data [1] $end
$var wire 1 } ww_seg7_data [0] $end
$var wire 1 ~ ww_seg7_char1 $end
$var wire 1 !! ww_seg7_char2 $end
$var wire 1 "! \pb_n[2]~input_o\ $end
$var wire 1 #! \pb_n[3]~input_o\ $end
$var wire 1 $! \sw[1]~input_o\ $end
$var wire 1 %! \sw[2]~input_o\ $end
$var wire 1 &! \sw[3]~input_o\ $end
$var wire 1 '! \sw[4]~input_o\ $end
$var wire 1 (! \sw[5]~input_o\ $end
$var wire 1 )! \sw[6]~input_o\ $end
$var wire 1 *! \sw[7]~input_o\ $end
$var wire 1 +! \seg7_data[6]~output_o\ $end
$var wire 1 ,! \leds[0]~output_o\ $end
$var wire 1 -! \leds[1]~output_o\ $end
$var wire 1 .! \leds[2]~output_o\ $end
$var wire 1 /! \leds[3]~output_o\ $end
$var wire 1 0! \leds[4]~output_o\ $end
$var wire 1 1! \leds[5]~output_o\ $end
$var wire 1 2! \leds[6]~output_o\ $end
$var wire 1 3! \leds[7]~output_o\ $end
$var wire 1 4! \sim_state[0]~output_o\ $end
$var wire 1 5! \sim_state[1]~output_o\ $end
$var wire 1 6! \sim_state[2]~output_o\ $end
$var wire 1 7! \sim_state[3]~output_o\ $end
$var wire 1 8! \sim_sm_clken~output_o\ $end
$var wire 1 9! \sim_blink_sig~output_o\ $end
$var wire 1 :! \ew_seg_a~output_o\ $end
$var wire 1 ;! \ew_seg_d~output_o\ $end
$var wire 1 <! \ew_seg_g~output_o\ $end
$var wire 1 =! \ns_seg_a~output_o\ $end
$var wire 1 >! \ns_seg_d~output_o\ $end
$var wire 1 ?! \ns_seg_g~output_o\ $end
$var wire 1 @! \seg7_data[0]~output_o\ $end
$var wire 1 A! \seg7_data[1]~output_o\ $end
$var wire 1 B! \seg7_data[2]~output_o\ $end
$var wire 1 C! \seg7_data[3]~output_o\ $end
$var wire 1 D! \seg7_data[4]~output_o\ $end
$var wire 1 E! \seg7_data[5]~output_o\ $end
$var wire 1 F! \seg7_char1~output_o\ $end
$var wire 1 G! \seg7_char2~output_o\ $end
$var wire 1 H! \clkin_50~input_o\ $end
$var wire 1 I! \INST3|clk_divider:counter[0]~1_combout\ $end
$var wire 1 J! \rst_n~input_o\ $end
$var wire 1 K! \INST0|rst_n_filtered~0_combout\ $end
$var wire 1 L! \INST3|clk_divider:counter[0]~q\ $end
$var wire 1 M! \INST3|clk_divider:counter[0]~2\ $end
$var wire 1 N! \INST3|clk_divider:counter[1]~1_combout\ $end
$var wire 1 O! \INST3|clk_divider:counter[1]~q\ $end
$var wire 1 P! \INST3|clk_divider:counter[1]~2\ $end
$var wire 1 Q! \INST3|clk_divider:counter[2]~1_combout\ $end
$var wire 1 R! \INST3|clk_divider:counter[2]~q\ $end
$var wire 1 S! \INST3|blink_sig~0_combout\ $end
$var wire 1 T! \INST3|blink_sig~q\ $end
$var wire 1 U! \INST3|clk_divider:counter[2]~2\ $end
$var wire 1 V! \INST3|clk_divider:counter[3]~1_combout\ $end
$var wire 1 W! \INST3|clk_divider:counter[3]~q\ $end
$var wire 1 X! \INST3|clk_divider:counter[3]~2\ $end
$var wire 1 Y! \INST3|clk_divider:counter[4]~1_combout\ $end
$var wire 1 Z! \INST3|clk_divider:counter[4]~q\ $end
$var wire 1 [! \INST3|clk_reg_extend~0_combout\ $end
$var wire 1 \! \INST3|clk_reg_extend~1_combout\ $end
$var wire 1 ]! \INST3|sm_clken~combout\ $end
$var wire 1 ^! \pb_n[0]~input_o\ $end
$var wire 1 _! \INST0|pb_n_filtered[0]~0_combout\ $end
$var wire 1 `! \INST6|sreg~0_combout\ $end
$var wire 1 a! \INST7|sreg~0_combout\ $end
$var wire 1 b! \INST7|sreg~q\ $end
$var wire 1 c! \pb_n[1]~input_o\ $end
$var wire 1 d! \INST0|pb_n_filtered[1]~1_combout\ $end
$var wire 1 e! \INST10|sreg~0_combout\ $end
$var wire 1 f! \INST11|sreg~0_combout\ $end
$var wire 1 g! \INST11|sreg~q\ $end
$var wire 1 h! \sw[0]~input_o\ $end
$var wire 1 i! \INST14|sreg~1_combout\ $end
$var wire 1 j! \INST14|sreg~0_combout\ $end
$var wire 1 k! \INST12|current_state~56_combout\ $end
$var wire 1 l! \INST12|current_state~57_combout\ $end
$var wire 1 m! \INST12|current_state.S15~q\ $end
$var wire 1 n! \INST12|current_state~49_combout\ $end
$var wire 1 o! \INST12|current_state~50_combout\ $end
$var wire 1 p! \INST12|current_state.S0~q\ $end
$var wire 1 q! \INST12|current_state~53_combout\ $end
$var wire 1 r! \INST12|current_state~54_combout\ $end
$var wire 1 s! \INST12|current_state.S1~q\ $end
$var wire 1 t! \INST12|current_state~34_combout\ $end
$var wire 1 u! \INST12|current_state~35_combout\ $end
$var wire 1 v! \INST12|current_state.S2~q\ $end
$var wire 1 w! \INST12|current_state~37_combout\ $end
$var wire 1 x! \INST12|current_state.S3~q\ $end
$var wire 1 y! \INST12|current_state~36_combout\ $end
$var wire 1 z! \INST12|current_state.S4~q\ $end
$var wire 1 {! \INST12|current_state~38_combout\ $end
$var wire 1 |! \INST12|current_state.S5~q\ $end
$var wire 1 }! \INST12|WideOr8~0_combout\ $end
$var wire 1 ~! \INST12|current_state~44_combout\ $end
$var wire 1 !" \INST12|current_state~45_combout\ $end
$var wire 1 "" \INST12|current_state.S6~q\ $end
$var wire 1 #" \INST12|current_state~55_combout\ $end
$var wire 1 $" \INST12|current_state.S7~q\ $end
$var wire 1 %" \INST12|current_state~46_combout\ $end
$var wire 1 &" \INST12|current_state.S8~q\ $end
$var wire 1 '" \INST12|current_state~51_combout\ $end
$var wire 1 (" \INST12|current_state~52_combout\ $end
$var wire 1 )" \INST12|current_state.S9~q\ $end
$var wire 1 *" \INST12|current_state~39_combout\ $end
$var wire 1 +" \INST12|current_state~40_combout\ $end
$var wire 1 ," \INST12|current_state.S10~q\ $end
$var wire 1 -" \INST12|current_state~42_combout\ $end
$var wire 1 ." \INST12|current_state.S11~q\ $end
$var wire 1 /" \INST12|current_state~41_combout\ $end
$var wire 1 0" \INST12|current_state.S12~q\ $end
$var wire 1 1" \INST12|current_state~43_combout\ $end
$var wire 1 2" \INST12|current_state.S13~q\ $end
$var wire 1 3" \ew_green_on~2_combout\ $end
$var wire 1 4" \INST12|current_state~47_combout\ $end
$var wire 1 5" \INST12|current_state~48_combout\ $end
$var wire 1 6" \INST12|current_state.S14~q\ $end
$var wire 1 7" \INST12|WideOr3~1_combout\ $end
$var wire 1 8" \INST12|WideOr5~0_combout\ $end
$var wire 1 9" \INST12|WideOr5~1_combout\ $end
$var wire 1 :" \INST12|WideOr4~0_combout\ $end
$var wire 1 ;" \DIN1~0_combout\ $end
$var wire 1 <" \INST12|WideOr3~0_combout\ $end
$var wire 1 =" \INST12|WideOr3~combout\ $end
$var wire 1 >" \INST12|WideOr7~0_combout\ $end
$var wire 1 ?" \INST12|WideOr8~combout\ $end
$var wire 1 @" \DIN1~1_combout\ $end
$var wire 1 A" \DIN1[6]~2_combout\ $end
$var wire 1 B" \INST13|clk_proc:COUNT[0]~0_combout\ $end
$var wire 1 C" \INST13|clk_proc:COUNT[0]~q\ $end
$var wire 1 D" \INST13|clk_proc:COUNT[1]~1_combout\ $end
$var wire 1 E" \INST13|clk_proc:COUNT[1]~q\ $end
$var wire 1 F" \INST13|clk_proc:COUNT[1]~2\ $end
$var wire 1 G" \INST13|clk_proc:COUNT[2]~1_combout\ $end
$var wire 1 H" \INST13|clk_proc:COUNT[2]~q\ $end
$var wire 1 I" \INST13|clk_proc:COUNT[2]~2\ $end
$var wire 1 J" \INST13|clk_proc:COUNT[3]~1_combout\ $end
$var wire 1 K" \INST13|clk_proc:COUNT[3]~q\ $end
$var wire 1 L" \INST13|clk_proc:COUNT[3]~2\ $end
$var wire 1 M" \INST13|clk_proc:COUNT[4]~1_combout\ $end
$var wire 1 N" \INST13|clk_proc:COUNT[4]~q\ $end
$var wire 1 O" \INST13|clk_proc:COUNT[4]~2\ $end
$var wire 1 P" \INST13|clk_proc:COUNT[5]~1_combout\ $end
$var wire 1 Q" \INST13|clk_proc:COUNT[5]~q\ $end
$var wire 1 R" \INST13|clk_proc:COUNT[5]~2\ $end
$var wire 1 S" \INST13|clk_proc:COUNT[6]~1_combout\ $end
$var wire 1 T" \INST13|clk_proc:COUNT[6]~q\ $end
$var wire 1 U" \INST13|clk_proc:COUNT[6]~2\ $end
$var wire 1 V" \INST13|clk_proc:COUNT[7]~1_combout\ $end
$var wire 1 W" \INST13|clk_proc:COUNT[7]~q\ $end
$var wire 1 X" \INST13|clk_proc:COUNT[7]~2\ $end
$var wire 1 Y" \INST13|clk_proc:COUNT[8]~1_combout\ $end
$var wire 1 Z" \INST13|clk_proc:COUNT[8]~q\ $end
$var wire 1 [" \INST13|clk_proc:COUNT[8]~2\ $end
$var wire 1 \" \INST13|clk_proc:COUNT[9]~1_combout\ $end
$var wire 1 ]" \INST13|clk_proc:COUNT[9]~q\ $end
$var wire 1 ^" \INST13|clk_proc:COUNT[9]~2\ $end
$var wire 1 _" \INST13|clk_proc:COUNT[10]~1_combout\ $end
$var wire 1 `" \INST13|clk_proc:COUNT[10]~q\ $end
$var wire 1 a" \INST13|DOUT_TEMP[6]~0_combout\ $end
$var wire 1 b" \INST12|WideOr10~0_combout\ $end
$var wire 1 c" \INST12|WideOr5~combout\ $end
$var wire 1 d" \INST12|WideOr4~combout\ $end
$var wire 1 e" \ew_green_on~3_combout\ $end
$var wire 1 f" \DIN2[0]~0_combout\ $end
$var wire 1 g" \ns_green_on~2_combout\ $end
$var wire 1 h" \INST12|ns_amber~0_combout\ $end
$var wire 1 i" \INST13|DOUT[0]~0_combout\ $end
$var wire 1 j" \INST13|DOUT[3]~1_combout\ $end
$var wire 1 k" \INST6|sreg\ [1] $end
$var wire 1 l" \INST6|sreg\ [0] $end
$var wire 1 m" \INST2|sreg\ [1] $end
$var wire 1 n" \INST2|sreg\ [0] $end
$var wire 1 o" \INST10|sreg\ [1] $end
$var wire 1 p" \INST10|sreg\ [0] $end
$var wire 1 q" \INST0|sreg4\ [3] $end
$var wire 1 r" \INST0|sreg4\ [2] $end
$var wire 1 s" \INST0|sreg4\ [1] $end
$var wire 1 t" \INST0|sreg4\ [0] $end
$var wire 1 u" \INST3|clk_reg_extend\ [1] $end
$var wire 1 v" \INST3|clk_reg_extend\ [0] $end
$var wire 1 w" \INST0|sreg0\ [3] $end
$var wire 1 x" \INST0|sreg0\ [2] $end
$var wire 1 y" \INST0|sreg0\ [1] $end
$var wire 1 z" \INST0|sreg0\ [0] $end
$var wire 1 {" \INST14|sreg\ [1] $end
$var wire 1 |" \INST14|sreg\ [0] $end
$var wire 1 }" \INST0|sreg1\ [3] $end
$var wire 1 ~" \INST0|sreg1\ [2] $end
$var wire 1 !# \INST0|sreg1\ [1] $end
$var wire 1 "# \INST0|sreg1\ [0] $end
$var wire 1 ## \INST12|ALT_INV_ns_amber~0_combout\ $end
$var wire 1 $# \INST12|ALT_INV_WideOr8~combout\ $end
$var wire 1 %# \INST12|ALT_INV_WideOr3~combout\ $end
$var wire 1 &# \INST12|ALT_INV_WideOr4~combout\ $end
$var wire 1 '# \INST12|ALT_INV_WideOr5~combout\ $end
$var wire 1 (# \INST12|ALT_INV_WideOr10~0_combout\ $end
$var wire 1 )# \INST12|ALT_INV_WideOr7~0_combout\ $end
$var wire 1 *# \INST13|ALT_INV_clk_proc:COUNT[10]~q\ $end
$upscope $end
$upscope $end
$enddefinitions $end
#0
$dumpvars
0!
1"
0#
0$
0-
0.
0/
04
15
06
0>
0?
0L
1M
xN
1O
1P
1Q
1R
1S
1T
0U
0V
0o
0p
1q
0r
0s
0t
0u
0v
1~
0!!
1"!
1#!
x$!
x%!
x&!
x'!
x(!
x)!
x*!
0+!
0,!
0-!
0.!
0/!
00!
01!
02!
03!
04!
05!
06!
07!
08!
09!
1:!
0;!
0<!
0=!
0>!
0?!
1@!
0A!
0B!
0C!
0D!
0E!
1F!
0G!
0H!
1I!
0J!
1K!
0L!
0M!
0N!
0O!
1P!
0Q!
0R!
0S!
0T!
0U!
0V!
0W!
1X!
0Y!
0Z!
0[!
0\!
0]!
1^!
1_!
0`!
0a!
0b!
1c!
1d!
0e!
0f!
0g!
0h!
0i!
0j!
0k!
0l!
0m!
0n!
0o!
0p!
0q!
0r!
0s!
0t!
0u!
0v!
0w!
0x!
0y!
0z!
0{!
0|!
0}!
0~!
0!"
0""
0#"
0$"
0%"
0&"
0'"
0("
0)"
0*"
0+"
0,"
0-"
0."
0/"
00"
01"
02"
13"
04"
05"
06"
07"
08"
19"
0:"
0;"
0<"
1="
1>"
1?"
0@"
0A"
1B"
0C"
0D"
0E"
0F"
0G"
0H"
1I"
0J"
0K"
0L"
0M"
0N"
1O"
0P"
0Q"
0R"
0S"
0T"
1U"
0V"
0W"
0X"
0Y"
0Z"
1["
0\"
0]"
0^"
0_"
0`"
0a"
1b"
1c"
1d"
0e"
0f"
0g"
1h"
1i"
0j"
0##
0$#
0%#
0&#
0'#
0(#
0)#
1*#
10
11
12
13
xD
xE
xF
xG
xH
xI
xJ
0K
1W
1X
1Y
1Z
x[
x\
x]
x^
x_
x`
xa
0b
0c
0d
0e
0f
0g
0h
0i
0j
0k
0l
0m
0n
0w
0x
0y
0z
0{
0|
1}
0k"
0l"
0m"
0n"
0o"
0p"
0q"
0r"
0s"
0t"
0u"
0v"
0w"
0x"
0y"
0z"
0{"
0|"
0}"
0~"
0!#
0"#
0%
0&
0'
0(
0)
0*
0+
0,
07
08
09
0:
0;
0<
1=
0@
0A
0B
0C
$end
#10000
1!
1U
1H!
1n"
1L!
1z"
1l"
1"#
1p"
1C"
0B"
1D"
1e!
1`!
0I!
1M!
1N!
#20000
0!
0U
0H!
#30000
1!
1U
1H!
1m"
0L!
1O!
1y"
1k"
1!#
1o"
0C"
1E"
1B"
0d!
0_!
0N!
0P!
1I!
0M!
0`!
0e!
1N!
1P!
1Q!
0Q!
#40000
0!
0U
0H!
#50000
1!
1U
1H!
0O!
1x"
0l"
0k"
1~"
0p"
0o"
1C"
0B"
0D"
1F"
0N!
1G"
#60000
0!
0U
0H!
#70000
1!
1U
1H!
1w"
1}"
0C"
0E"
1H"
0G"
0I"
1B"
0F"
1G"
1I"
1J"
0J"
#80000
0!
14
0U
1V
1J!
0H!
#90000
1!
1U
1H!
1t"
1C"
0B"
1D"
#100000
0!
0U
0H!
#110000
1!
1U
1H!
1s"
0C"
1E"
1B"
0K!
#120000
0!
0U
0H!
#130000
1!
1U
1H!
1r"
0n"
1C"
0B"
0D"
1F"
0G"
0I"
1J"
#140000
0!
0U
0H!
#150000
1!
1U
1H!
1q"
0m"
0C"
0E"
0H"
1K"
0J"
1L"
1G"
1I"
1B"
0F"
0G"
1J"
0L"
1M"
0M"
#160000
0!
0U
0H!
#170000
1!
1U
1H!
1L!
1C"
0B"
1D"
0I!
1M!
1N!
#180000
0!
0U
0H!
#190000
1!
1U
1H!
0L!
1O!
0C"
1E"
1B"
0N!
0P!
1I!
0M!
1N!
1P!
1Q!
0Q!
#200000
0!
0U
0H!
#210000
1!
1U
1H!
1L!
1C"
0B"
0D"
1F"
0I!
1M!
0N!
0P!
1G"
1Q!
#220000
0!
0U
0H!
#230000
1!
1U
1H!
0L!
0O!
1R!
0C"
0E"
1H"
0G"
0I"
1B"
0F"
0Q!
1U!
1S!
1N!
1P!
1I!
0M!
0N!
1Q!
0U!
1V!
1G"
1I"
0J"
1L"
1M"
1J"
0L"
0V!
0M"
#240000
0!
0U
0H!
#250000
1!
1U
1H!
1L!
1T!
1C"
19!
0B"
1D"
1g"
0I!
1M!
1p
1>!
1N!
1>
1u
1.
#260000
0!
0U
0H!
#270000
1!
1U
1H!
0L!
1O!
0C"
1E"
1B"
0N!
0P!
1I!
0M!
1N!
1P!
0Q!
1U!
1V!
1Q!
0U!
0V!
#280000
0!
0U
0H!
#290000
1!
1U
1H!
1L!
1C"
0B"
0D"
1F"
0I!
1M!
0N!
0P!
0G"
0I"
0J"
1L"
0Q!
1U!
1V!
1M"
#300000
0!
0U
0H!
#310000
1!
1U
1H!
0L!
0O!
0R!
1W!
0C"
0E"
0H"
0K"
1N"
0M"
0O"
1J"
0L"
1G"
1I"
1B"
0F"
0V!
0X!
1Q!
0U!
0S!
1N!
1P!
1I!
0M!
0N!
0Q!
1V!
1X!
1Y!
0G"
0J"
1M"
1O"
1P"
0P"
0Y!
#320000
0!
0U
0H!
#330000
1!
1U
1H!
1L!
0T!
1C"
09!
0B"
1D"
0g"
0I!
1M!
0p
0>!
1N!
0>
0u
0.
#340000
0!
0U
0H!
#350000
1!
1U
1H!
0L!
1O!
0C"
1E"
1B"
0N!
0P!
1I!
0M!
1N!
1P!
1Q!
0Q!
#360000
0!
0U
0H!
#370000
1!
1U
1H!
1L!
1C"
0B"
0D"
1F"
0I!
1M!
0N!
0P!
1G"
1Q!
#380000
0!
0U
0H!
#390000
1!
1U
1H!
0L!
0O!
1R!
0C"
0E"
1H"
0G"
0I"
1B"
0F"
0Q!
1U!
1S!
1N!
1P!
1I!
0M!
0N!
1Q!
0U!
0V!
0X!
1G"
1I"
1J"
0J"
1Y!
1V!
1X!
0Y!
#400000
0!
0U
0H!
#410000
1!
1U
1H!
1L!
1T!
1C"
19!
0B"
1D"
1g"
0I!
1M!
1p
1>!
1N!
1>
1u
1.
#420000
0!
0U
0H!
#430000
1!
1U
1H!
0L!
1O!
0C"
1E"
1B"
0N!
0P!
1I!
0M!
1N!
1P!
0Q!
1U!
0V!
0X!
1Q!
0U!
1V!
1X!
1Y!
0Y!
#440000
0!
0U
0H!
#450000
1!
1U
1H!
1L!
1C"
0B"
0D"
1F"
0I!
1M!
0N!
0P!
0G"
0I"
1J"
0Q!
1U!
0V!
0X!
1Y!
#460000
0!
0U
0H!
#470000
1!
1U
1H!
0L!
0O!
0R!
0W!
1Z!
0C"
0E"
0H"
1K"
0J"
1L"
1G"
1I"
1B"
0F"
0Y!
1[!
1V!
1X!
1Q!
0U!
0S!
1N!
1P!
1I!
0M!
0N!
0Q!
0V!
1Y!
0G"
1J"
0L"
0M"
0O"
1P"
1M"
1O"
0P"
#480000
0!
0U
0H!
#490000
1!
1U
1H!
1L!
0T!
1v"
1C"
09!
0B"
1D"
1\!
1]!
0g"
0I!
1M!
0p
0>!
18!
1N!
1o!
1q!
0>
0u
1o
1r!
0.
1?
#500000
0!
0U
0H!
#510000
1!
1U
1H!
0L!
1O!
1u"
1p!
1s!
0C"
1E"
1B"
1t!
0q!
09"
0]!
0N!
0P!
1I!
0M!
08!
1N!
1P!
1Q!
0c"
1'#
0o
0Q!
0?
10!
14!
1f
1n
1(
1C
#520000
0!
0U
0H!
#530000
1!
1U
1H!
1L!
1C"
0B"
0D"
1F"
0I!
1M!
0N!
0P!
1G"
1Q!
#540000
0!
0U
0H!
#550000
1!
1U
1H!
0L!
0O!
1R!
0C"
0E"
1H"
0G"
0I"
1B"
0F"
0Q!
1U!
1S!
1N!
1P!
1I!
0M!
0N!
1Q!
0U!
1V!
1G"
1I"
0J"
1L"
0M"
0O"
1J"
0L"
0V!
1M"
1O"
1P"
0P"
#560000
0!
0U
0H!
#570000
1!
1U
1H!
1L!
1T!
1C"
19!
0B"
1D"
1g"
0I!
1M!
1p
1>!
1N!
1>
1u
1.
#580000
0!
0U
0H!
#590000
1!
1U
1H!
0L!
1O!
0C"
1E"
1B"
0N!
0P!
1I!
0M!
1N!
1P!
0Q!
1U!
1V!
1Q!
0U!
0V!
#600000
0!
0U
0H!
#610000
1!
1U
1H!
1L!
1C"
0B"
0D"
1F"
0I!
1M!
0N!
0P!
0G"
0I"
0J"
1L"
0Q!
1U!
1V!
0M"
0O"
1P"
#620000
0!
0U
0H!
#630000
1!
1U
1H!
0L!
0O!
0R!
1W!
0C"
0E"
0H"
0K"
0N"
1Q"
0P"
1R"
1M"
1O"
1J"
0L"
1G"
1I"
1B"
0F"
0V!
0X!
1Q!
0U!
0S!
1N!
1P!
1I!
0M!
0N!
0Q!
1V!
1X!
0Y!
0G"
0J"
0M"
1P"
0R"
1S"
0S"
1Y!
#640000
0!
0U
0H!
#650000
1!
1U
1H!
1L!
0T!
1C"
09!
0B"
1D"
0g"
0I!
1M!
0p
0>!
1N!
0>
0u
0.
#660000
0!
0U
0H!
#670000
1!
1U
1H!
0L!
1O!
0C"
1E"
1B"
0N!
0P!
1I!
0M!
1N!
1P!
1Q!
0Q!
#680000
0!
0U
0H!
#690000
1!
1U
1H!
1L!
1C"
0B"
0D"
1F"
0I!
1M!
0N!
0P!
1G"
1Q!
#700000
0!
0U
0H!
#710000
1!
1U
1H!
0L!
0O!
1R!
0C"
0E"
1H"
0G"
0I"
1B"
0F"
0Q!
1U!
1S!
1N!
1P!
1I!
0M!
0N!
1Q!
0U!
0V!
0X!
1G"
1I"
1J"
0J"
0Y!
1V!
1X!
1Y!
#720000
0!
0U
0H!
#730000
1!
1U
1H!
1L!
1T!
1C"
19!
0B"
1D"
1g"
0I!
1M!
1p
1>!
1N!
1>
1u
1.
#740000
0!
0U
0H!
#750000
1!
1U
1H!
0L!
1O!
0C"
1E"
1B"
0N!
0P!
1I!
0M!
1N!
1P!
0Q!
1U!
0V!
0X!
1Q!
0U!
1V!
1X!
0Y!
1Y!
#760000
0!
0U
0H!
#770000
1!
1U
1H!
1L!
1C"
0B"
0D"
1F"
0I!
1M!
0N!
0P!
0G"
0I"
1J"
0Q!
1U!
0V!
0X!
0Y!
#780000
0!
0U
0H!
#790000
1!
1U
1H!
0L!
0O!
0R!
0W!
0Z!
0C"
0E"
0H"
1K"
0J"
1L"
1G"
1I"
1B"
0F"
1Y!
0[!
1V!
1X!
1Q!
0U!
0S!
1N!
1P!
1I!
0M!
0N!
0Q!
0V!
0Y!
0G"
1J"
0L"
1M"
0M"
#800000
0!
0U
0H!
#810000
1!
1U
1H!
1L!
0T!
0v"
1C"
09!
0B"
1D"
0\!
0g"
0I!
1M!
0p
0>!
1N!
0>
0u
0.
#820000
0!
0U
0H!
#830000
1!
1U
1H!
0L!
1O!
0u"
0C"
1E"
1B"
0N!
0P!
1I!
0M!
1N!
1P!
1Q!
0Q!
#840000
0!
0U
0H!
#850000
1!
1U
1H!
1L!
1C"
0B"
0D"
1F"
0I!
1M!
0N!
0P!
1G"
1Q!
#860000
0!
0U
0H!
#870000
1!
1U
1H!
0L!
0O!
1R!
0C"
0E"
1H"
0G"
0I"
1B"
0F"
0Q!
1U!
1S!
1N!
1P!
1I!
0M!
0N!
1Q!
0U!
1V!
1G"
1I"
0J"
1L"
1M"
1J"
0L"
0V!
0M"
#880000
0!
0U
0H!
#890000
1!
1U
1H!
1L!
1T!
1C"
19!
0B"
1D"
1g"
0I!
1M!
1p
1>!
1N!
1>
1u
1.
#900000
0!
0U
0H!
#910000
1!
1U
1H!
0L!
1O!
0C"
1E"
1B"
0N!
0P!
1I!
0M!
1N!
1P!
0Q!
1U!
1V!
1Q!
0U!
0V!
#920000
0!
0U
0H!
#930000
1!
1U
1H!
1L!
1C"
0B"
0D"
1F"
0I!
1M!
0N!
0P!
0G"
0I"
0J"
1L"
0Q!
1U!
1V!
1M"
#940000
0!
0U
0H!
#950000
1!
1U
1H!
0L!
0O!
0R!
1W!
0C"
0E"
0H"
0K"
1N"
0M"
0O"
1J"
0L"
1G"
1I"
1B"
0F"
0V!
0X!
1Q!
0U!
0S!
1N!
1P!
1I!
0M!
0N!
0Q!
1V!
1X!
1Y!
0G"
0J"
1M"
1O"
0P"
1R"
1S"
1P"
0R"
0Y!
0S"
#960000
0!
0U
0H!
#970000
1!
1U
1H!
1L!
0T!
1C"
09!
0B"
1D"
0g"
0I!
1M!
0p
0>!
1N!
0>
0u
0.
#980000
0!
0U
0H!
#990000
1!
1U
1H!
0L!
1O!
0C"
1E"
1B"
0N!
0P!
1I!
0M!
1N!
1P!
1Q!
0Q!
#1000000
0!
0U
0H!
#1010000
1!
1U
1H!
1L!
1C"
0B"
0D"
1F"
0I!
1M!
0N!
0P!
1G"
1Q!
#1020000
0!
0U
0H!
#1030000
1!
1U
1H!
0L!
0O!
1R!
0C"
0E"
1H"
0G"
0I"
1B"
0F"
0Q!
1U!
1S!
1N!
1P!
1I!
0M!
0N!
1Q!
0U!
0V!
0X!
1G"
1I"
1J"
0J"
1Y!
1V!
1X!
0Y!
#1040000
0!
0U
0H!
#1050000
1!
1U
1H!
1L!
1T!
1C"
19!
0B"
1D"
1g"
0I!
1M!
1p
1>!
1N!
1>
1u
1.
#1060000
0!
0U
0H!
#1070000
1!
1U
1H!
0L!
1O!
0C"
1E"
1B"
0N!
0P!
1I!
0M!
1N!
1P!
0Q!
1U!
0V!
0X!
1Q!
0U!
1V!
1X!
1Y!
0Y!
#1080000
0!
0U
0H!
#1090000
1!
1U
1H!
1L!
1C"
0B"
0D"
1F"
0I!
1M!
0N!
0P!
0G"
0I"
1J"
0Q!
1U!
0V!
0X!
1Y!
#1100000
0!
0U
0H!
#1110000
1!
1U
1H!
0L!
0O!
0R!
0W!
1Z!
0C"
0E"
0H"
1K"
0J"
1L"
1G"
1I"
1B"
0F"
0Y!
1[!
1V!
1X!
1Q!
0U!
0S!
1N!
1P!
1I!
0M!
0N!
0Q!
0V!
1Y!
0G"
1J"
0L"
0M"
0O"
0P"
1R"
1M"
1O"
1P"
0R"
1S"
0S"
#1120000
0!
0U
0H!
#1130000
1!
1U
1H!
1L!
0T!
1v"
1C"
09!
0B"
1D"
1\!
1]!
0g"
0I!
1M!
0p
0>!
18!
1N!
0r!
1u!
0>
0u
1o
0.
1?
#1140000
0!
0U
0H!
